^C:\USERS\OWNER\DESKTOP\COCOS2D-X-2.2\SAMPLES\CPP\HELLOCPP\CLASSES\BOX2D_2\APPDELEGATE.CPP
/c /I"C:\Users\owner\Desktop\cocos2d-x-2.2\samples\Cpp\HelloCpp\proj.win32\..\..\..\..\CocosDenshion\include" /I"C:\Users\owner\Desktop\cocos2d-x-2.2\samples\Cpp\HelloCpp\proj.win32\..\Classes" /I"C:\Users\owner\Desktop\cocos2d-x-2.2\samples\Cpp\HelloCpp\proj.win32\..\..\..\..\external" /I"C:\Users\owner\Desktop\cocos2d-x-2.2\samples\Cpp\HelloCpp\proj.win32\..\..\..\..\cocos2dx" /I"C:\Users\owner\Desktop\cocos2d-x-2.2\samples\Cpp\HelloCpp\proj.win32\..\..\..\..\cocos2dx\include" /I"C:\Users\owner\Desktop\cocos2d-x-2.2\samples\Cpp\HelloCpp\proj.win32\..\..\..\..\cocos2dx\kazmath\include" /I"C:\Users\owner\Desktop\cocos2d-x-2.2\samples\Cpp\HelloCpp\proj.win32\..\..\..\..\cocos2dx\platform\win32" /I"C:\Users\owner\Desktop\cocos2d-x-2.2\samples\Cpp\HelloCpp\proj.win32\..\..\..\..\cocos2dx\platform\third_party\win32\OGLES" /I..\Classes /ZI /nologo /W3 /WX- /Od /Oy- /D WIN32 /D _DEBUG /D _WINDOWS /D COCOS2D_DEBUG=1 /D _CRT_SECURE_NO_WARNINGS /D _SCL_SECURE_NO_WARNINGS /D _UNICODE /D UNICODE /Gm /EHsc /RTC1 /MDd /GS /fp:precise /Zc:wchar_t /Zc:forScope /Fo"DEBUG.WIN32\\" /Fd"DEBUG.WIN32\VC110.PDB" /Gd /TP /wd4267 /wd4251 /wd4244 /analyze- C:\USERS\OWNER\DESKTOP\COCOS2D-X-2.2\SAMPLES\CPP\HELLOCPP\CLASSES\BOX2D_2\APPDELEGATE.CPP
^C:\USERS\OWNER\DESKTOP\COCOS2D-X-2.2\SAMPLES\CPP\HELLOCPP\CLASSES\BOX2D_2\B2DEBUGDRAW.CPP
/c /I"C:\Users\owner\Desktop\cocos2d-x-2.2\samples\Cpp\HelloCpp\proj.win32\..\..\..\..\CocosDenshion\include" /I"C:\Users\owner\Desktop\cocos2d-x-2.2\samples\Cpp\HelloCpp\proj.win32\..\Classes" /I"C:\Users\owner\Desktop\cocos2d-x-2.2\samples\Cpp\HelloCpp\proj.win32\..\..\..\..\external" /I"C:\Users\owner\Desktop\cocos2d-x-2.2\samples\Cpp\HelloCpp\proj.win32\..\..\..\..\cocos2dx" /I"C:\Users\owner\Desktop\cocos2d-x-2.2\samples\Cpp\HelloCpp\proj.win32\..\..\..\..\cocos2dx\include" /I"C:\Users\owner\Desktop\cocos2d-x-2.2\samples\Cpp\HelloCpp\proj.win32\..\..\..\..\cocos2dx\kazmath\include" /I"C:\Users\owner\Desktop\cocos2d-x-2.2\samples\Cpp\HelloCpp\proj.win32\..\..\..\..\cocos2dx\platform\win32" /I"C:\Users\owner\Desktop\cocos2d-x-2.2\samples\Cpp\HelloCpp\proj.win32\..\..\..\..\cocos2dx\platform\third_party\win32\OGLES" /I..\Classes /ZI /nologo /W3 /WX- /Od /Oy- /D WIN32 /D _DEBUG /D _WINDOWS /D COCOS2D_DEBUG=1 /D _CRT_SECURE_NO_WARNINGS /D _SCL_SECURE_NO_WARNINGS /D _UNICODE /D UNICODE /Gm /EHsc /RTC1 /MDd /GS /fp:precise /Zc:wchar_t /Zc:forScope /Fo"DEBUG.WIN32\\" /Fd"DEBUG.WIN32\VC110.PDB" /Gd /TP /wd4267 /wd4251 /wd4244 /analyze- C:\USERS\OWNER\DESKTOP\COCOS2D-X-2.2\SAMPLES\CPP\HELLOCPP\CLASSES\BOX2D_2\B2DEBUGDRAW.CPP
^C:\USERS\OWNER\DESKTOP\COCOS2D-X-2.2\SAMPLES\CPP\HELLOCPP\CLASSES\BOX2D_2\FREEHANDDRAW.CPP
/c /I"C:\Users\owner\Desktop\cocos2d-x-2.2\samples\Cpp\HelloCpp\proj.win32\..\..\..\..\CocosDenshion\include" /I"C:\Users\owner\Desktop\cocos2d-x-2.2\samples\Cpp\HelloCpp\proj.win32\..\Classes" /I"C:\Users\owner\Desktop\cocos2d-x-2.2\samples\Cpp\HelloCpp\proj.win32\..\..\..\..\external" /I"C:\Users\owner\Desktop\cocos2d-x-2.2\samples\Cpp\HelloCpp\proj.win32\..\..\..\..\cocos2dx" /I"C:\Users\owner\Desktop\cocos2d-x-2.2\samples\Cpp\HelloCpp\proj.win32\..\..\..\..\cocos2dx\include" /I"C:\Users\owner\Desktop\cocos2d-x-2.2\samples\Cpp\HelloCpp\proj.win32\..\..\..\..\cocos2dx\kazmath\include" /I"C:\Users\owner\Desktop\cocos2d-x-2.2\samples\Cpp\HelloCpp\proj.win32\..\..\..\..\cocos2dx\platform\win32" /I"C:\Users\owner\Desktop\cocos2d-x-2.2\samples\Cpp\HelloCpp\proj.win32\..\..\..\..\cocos2dx\platform\third_party\win32\OGLES" /I..\Classes /ZI /nologo /W3 /WX- /Od /Oy- /D WIN32 /D _DEBUG /D _WINDOWS /D COCOS2D_DEBUG=1 /D _CRT_SECURE_NO_WARNINGS /D _SCL_SECURE_NO_WARNINGS /D _UNICODE /D UNICODE /Gm /EHsc /RTC1 /MDd /GS /fp:precise /Zc:wchar_t /Zc:forScope /Fo"DEBUG.WIN32\\" /Fd"DEBUG.WIN32\VC110.PDB" /Gd /TP /wd4267 /wd4251 /wd4244 /analyze- C:\USERS\OWNER\DESKTOP\COCOS2D-X-2.2\SAMPLES\CPP\HELLOCPP\CLASSES\BOX2D_2\FREEHANDDRAW.CPP
^C:\USERS\OWNER\DESKTOP\COCOS2D-X-2.2\SAMPLES\CPP\HELLOCPP\CLASSES\BOX2D_2\HELLOWORLDSCENE.CPP
/c /I"C:\Users\owner\Desktop\cocos2d-x-2.2\samples\Cpp\HelloCpp\proj.win32\..\..\..\..\CocosDenshion\include" /I"C:\Users\owner\Desktop\cocos2d-x-2.2\samples\Cpp\HelloCpp\proj.win32\..\Classes" /I"C:\Users\owner\Desktop\cocos2d-x-2.2\samples\Cpp\HelloCpp\proj.win32\..\..\..\..\external" /I"C:\Users\owner\Desktop\cocos2d-x-2.2\samples\Cpp\HelloCpp\proj.win32\..\..\..\..\cocos2dx" /I"C:\Users\owner\Desktop\cocos2d-x-2.2\samples\Cpp\HelloCpp\proj.win32\..\..\..\..\cocos2dx\include" /I"C:\Users\owner\Desktop\cocos2d-x-2.2\samples\Cpp\HelloCpp\proj.win32\..\..\..\..\cocos2dx\kazmath\include" /I"C:\Users\owner\Desktop\cocos2d-x-2.2\samples\Cpp\HelloCpp\proj.win32\..\..\..\..\cocos2dx\platform\win32" /I"C:\Users\owner\Desktop\cocos2d-x-2.2\samples\Cpp\HelloCpp\proj.win32\..\..\..\..\cocos2dx\platform\third_party\win32\OGLES" /I..\Classes /ZI /nologo /W3 /WX- /Od /Oy- /D WIN32 /D _DEBUG /D _WINDOWS /D COCOS2D_DEBUG=1 /D _CRT_SECURE_NO_WARNINGS /D _SCL_SECURE_NO_WARNINGS /D _UNICODE /D UNICODE /Gm /EHsc /RTC1 /MDd /GS /fp:precise /Zc:wchar_t /Zc:forScope /Fo"DEBUG.WIN32\\" /Fd"DEBUG.WIN32\VC110.PDB" /Gd /TP /wd4267 /wd4251 /wd4244 /analyze- C:\USERS\OWNER\DESKTOP\COCOS2D-X-2.2\SAMPLES\CPP\HELLOCPP\CLASSES\BOX2D_2\HELLOWORLDSCENE.CPP
^C:\USERS\OWNER\DESKTOP\COCOS2D-X-2.2\SAMPLES\CPP\HELLOCPP\CLASSES\BOX2D_2\SOFTBALL.CPP
/c /I"C:\Users\owner\Desktop\cocos2d-x-2.2\samples\Cpp\HelloCpp\proj.win32\..\..\..\..\CocosDenshion\include" /I"C:\Users\owner\Desktop\cocos2d-x-2.2\samples\Cpp\HelloCpp\proj.win32\..\Classes" /I"C:\Users\owner\Desktop\cocos2d-x-2.2\samples\Cpp\HelloCpp\proj.win32\..\..\..\..\external" /I"C:\Users\owner\Desktop\cocos2d-x-2.2\samples\Cpp\HelloCpp\proj.win32\..\..\..\..\cocos2dx" /I"C:\Users\owner\Desktop\cocos2d-x-2.2\samples\Cpp\HelloCpp\proj.win32\..\..\..\..\cocos2dx\include" /I"C:\Users\owner\Desktop\cocos2d-x-2.2\samples\Cpp\HelloCpp\proj.win32\..\..\..\..\cocos2dx\kazmath\include" /I"C:\Users\owner\Desktop\cocos2d-x-2.2\samples\Cpp\HelloCpp\proj.win32\..\..\..\..\cocos2dx\platform\win32" /I"C:\Users\owner\Desktop\cocos2d-x-2.2\samples\Cpp\HelloCpp\proj.win32\..\..\..\..\cocos2dx\platform\third_party\win32\OGLES" /I..\Classes /ZI /nologo /W3 /WX- /Od /Oy- /D WIN32 /D _DEBUG /D _WINDOWS /D COCOS2D_DEBUG=1 /D _CRT_SECURE_NO_WARNINGS /D _SCL_SECURE_NO_WARNINGS /D _UNICODE /D UNICODE /Gm /EHsc /RTC1 /MDd /GS /fp:precise /Zc:wchar_t /Zc:forScope /Fo"DEBUG.WIN32\\" /Fd"DEBUG.WIN32\VC110.PDB" /Gd /TP /wd4267 /wd4251 /wd4244 /analyze- C:\USERS\OWNER\DESKTOP\COCOS2D-X-2.2\SAMPLES\CPP\HELLOCPP\CLASSES\BOX2D_2\SOFTBALL.CPP
^C:\USERS\OWNER\DESKTOP\COCOS2D-X-2.2\SAMPLES\CPP\HELLOCPP\PROJ.WIN32\MAIN.CPP
/c /I"C:\Users\owner\Desktop\cocos2d-x-2.2\samples\Cpp\HelloCpp\proj.win32\..\..\..\..\CocosDenshion\include" /I"C:\Users\owner\Desktop\cocos2d-x-2.2\samples\Cpp\HelloCpp\proj.win32\..\Classes" /I"C:\Users\owner\Desktop\cocos2d-x-2.2\samples\Cpp\HelloCpp\proj.win32\..\..\..\..\external" /I"C:\Users\owner\Desktop\cocos2d-x-2.2\samples\Cpp\HelloCpp\proj.win32\..\..\..\..\cocos2dx" /I"C:\Users\owner\Desktop\cocos2d-x-2.2\samples\Cpp\HelloCpp\proj.win32\..\..\..\..\cocos2dx\include" /I"C:\Users\owner\Desktop\cocos2d-x-2.2\samples\Cpp\HelloCpp\proj.win32\..\..\..\..\cocos2dx\kazmath\include" /I"C:\Users\owner\Desktop\cocos2d-x-2.2\samples\Cpp\HelloCpp\proj.win32\..\..\..\..\cocos2dx\platform\win32" /I"C:\Users\owner\Desktop\cocos2d-x-2.2\samples\Cpp\HelloCpp\proj.win32\..\..\..\..\cocos2dx\platform\third_party\win32\OGLES" /I..\Classes /ZI /nologo /W3 /WX- /Od /Oy- /D WIN32 /D _DEBUG /D _WINDOWS /D COCOS2D_DEBUG=1 /D _CRT_SECURE_NO_WARNINGS /D _SCL_SECURE_NO_WARNINGS /D _UNICODE /D UNICODE /Gm /EHsc /RTC1 /MDd /GS /fp:precise /Zc:wchar_t /Zc:forScope /Fo"DEBUG.WIN32\\" /Fd"DEBUG.WIN32\VC110.PDB" /Gd /TP /wd4267 /wd4251 /wd4244 /analyze- C:\USERS\OWNER\DESKTOP\COCOS2D-X-2.2\SAMPLES\CPP\HELLOCPP\PROJ.WIN32\MAIN.CPP
^E:\BALLOONASHGIT\COCOS2D-X-2.2\SAMPLES\CPP\HELLOCPP\CLASSES\BOX2D_2\APPDELEGATE.CPP
/c /I"E:\BalloonAshGit\cocos2d-x-2.2\samples\Cpp\HelloCpp\proj.win32\..\..\..\..\CocosDenshion\include" /I"E:\BalloonAshGit\cocos2d-x-2.2\samples\Cpp\HelloCpp\proj.win32\..\Classes" /I"E:\BalloonAshGit\cocos2d-x-2.2\samples\Cpp\HelloCpp\proj.win32\..\..\..\..\external" /I"E:\BalloonAshGit\cocos2d-x-2.2\samples\Cpp\HelloCpp\proj.win32\..\..\..\..\cocos2dx" /I"E:\BalloonAshGit\cocos2d-x-2.2\samples\Cpp\HelloCpp\proj.win32\..\..\..\..\cocos2dx\include" /I"E:\BalloonAshGit\cocos2d-x-2.2\samples\Cpp\HelloCpp\proj.win32\..\..\..\..\cocos2dx\kazmath\include" /I"E:\BalloonAshGit\cocos2d-x-2.2\samples\Cpp\HelloCpp\proj.win32\..\..\..\..\cocos2dx\platform\win32" /I"E:\BalloonAshGit\cocos2d-x-2.2\samples\Cpp\HelloCpp\proj.win32\..\..\..\..\cocos2dx\platform\third_party\win32\OGLES" /I..\Classes /ZI /nologo /W3 /WX- /Od /Oy- /D WIN32 /D _DEBUG /D _WINDOWS /D COCOS2D_DEBUG=1 /D _CRT_SECURE_NO_WARNINGS /D _SCL_SECURE_NO_WARNINGS /D _UNICODE /D UNICODE /Gm /EHsc /RTC1 /MDd /GS /fp:precise /Zc:wchar_t /Zc:forScope /Fo"DEBUG.WIN32\\" /Fd"DEBUG.WIN32\VC110.PDB" /Gd /TP /wd4267 /wd4251 /wd4244 /analyze- E:\BALLOONASHGIT\COCOS2D-X-2.2\SAMPLES\CPP\HELLOCPP\CLASSES\BOX2D_2\APPDELEGATE.CPP
^E:\BALLOONASHGIT\COCOS2D-X-2.2\SAMPLES\CPP\HELLOCPP\CLASSES\BOX2D_2\B2DEBUGDRAW.CPP
/c /I"E:\BalloonAshGit\cocos2d-x-2.2\samples\Cpp\HelloCpp\proj.win32\..\..\..\..\CocosDenshion\include" /I"E:\BalloonAshGit\cocos2d-x-2.2\samples\Cpp\HelloCpp\proj.win32\..\Classes" /I"E:\BalloonAshGit\cocos2d-x-2.2\samples\Cpp\HelloCpp\proj.win32\..\..\..\..\external" /I"E:\BalloonAshGit\cocos2d-x-2.2\samples\Cpp\HelloCpp\proj.win32\..\..\..\..\cocos2dx" /I"E:\BalloonAshGit\cocos2d-x-2.2\samples\Cpp\HelloCpp\proj.win32\..\..\..\..\cocos2dx\include" /I"E:\BalloonAshGit\cocos2d-x-2.2\samples\Cpp\HelloCpp\proj.win32\..\..\..\..\cocos2dx\kazmath\include" /I"E:\BalloonAshGit\cocos2d-x-2.2\samples\Cpp\HelloCpp\proj.win32\..\..\..\..\cocos2dx\platform\win32" /I"E:\BalloonAshGit\cocos2d-x-2.2\samples\Cpp\HelloCpp\proj.win32\..\..\..\..\cocos2dx\platform\third_party\win32\OGLES" /I..\Classes /ZI /nologo /W3 /WX- /Od /Oy- /D WIN32 /D _DEBUG /D _WINDOWS /D COCOS2D_DEBUG=1 /D _CRT_SECURE_NO_WARNINGS /D _SCL_SECURE_NO_WARNINGS /D _UNICODE /D UNICODE /Gm /EHsc /RTC1 /MDd /GS /fp:precise /Zc:wchar_t /Zc:forScope /Fo"DEBUG.WIN32\\" /Fd"DEBUG.WIN32\VC110.PDB" /Gd /TP /wd4267 /wd4251 /wd4244 /analyze- E:\BALLOONASHGIT\COCOS2D-X-2.2\SAMPLES\CPP\HELLOCPP\CLASSES\BOX2D_2\B2DEBUGDRAW.CPP
^E:\BALLOONASHGIT\COCOS2D-X-2.2\SAMPLES\CPP\HELLOCPP\CLASSES\BOX2D_2\FREEHANDDRAW.CPP
/c /I"E:\BalloonAshGit\cocos2d-x-2.2\samples\Cpp\HelloCpp\proj.win32\..\..\..\..\CocosDenshion\include" /I"E:\BalloonAshGit\cocos2d-x-2.2\samples\Cpp\HelloCpp\proj.win32\..\Classes" /I"E:\BalloonAshGit\cocos2d-x-2.2\samples\Cpp\HelloCpp\proj.win32\..\..\..\..\external" /I"E:\BalloonAshGit\cocos2d-x-2.2\samples\Cpp\HelloCpp\proj.win32\..\..\..\..\cocos2dx" /I"E:\BalloonAshGit\cocos2d-x-2.2\samples\Cpp\HelloCpp\proj.win32\..\..\..\..\cocos2dx\include" /I"E:\BalloonAshGit\cocos2d-x-2.2\samples\Cpp\HelloCpp\proj.win32\..\..\..\..\cocos2dx\kazmath\include" /I"E:\BalloonAshGit\cocos2d-x-2.2\samples\Cpp\HelloCpp\proj.win32\..\..\..\..\cocos2dx\platform\win32" /I"E:\BalloonAshGit\cocos2d-x-2.2\samples\Cpp\HelloCpp\proj.win32\..\..\..\..\cocos2dx\platform\third_party\win32\OGLES" /I..\Classes /ZI /nologo /W3 /WX- /Od /Oy- /D WIN32 /D _DEBUG /D _WINDOWS /D COCOS2D_DEBUG=1 /D _CRT_SECURE_NO_WARNINGS /D _SCL_SECURE_NO_WARNINGS /D _UNICODE /D UNICODE /Gm /EHsc /RTC1 /MDd /GS /fp:precise /Zc:wchar_t /Zc:forScope /Fo"DEBUG.WIN32\\" /Fd"DEBUG.WIN32\VC110.PDB" /Gd /TP /wd4267 /wd4251 /wd4244 /analyze- E:\BALLOONASHGIT\COCOS2D-X-2.2\SAMPLES\CPP\HELLOCPP\CLASSES\BOX2D_2\FREEHANDDRAW.CPP
^E:\BALLOONASHGIT\COCOS2D-X-2.2\SAMPLES\CPP\HELLOCPP\CLASSES\BOX2D_2\HELLOWORLDSCENE.CPP
/c /I"E:\BalloonAshGit\cocos2d-x-2.2\samples\Cpp\HelloCpp\proj.win32\..\..\..\..\CocosDenshion\include" /I"E:\BalloonAshGit\cocos2d-x-2.2\samples\Cpp\HelloCpp\proj.win32\..\Classes" /I"E:\BalloonAshGit\cocos2d-x-2.2\samples\Cpp\HelloCpp\proj.win32\..\..\..\..\external" /I"E:\BalloonAshGit\cocos2d-x-2.2\samples\Cpp\HelloCpp\proj.win32\..\..\..\..\cocos2dx" /I"E:\BalloonAshGit\cocos2d-x-2.2\samples\Cpp\HelloCpp\proj.win32\..\..\..\..\cocos2dx\include" /I"E:\BalloonAshGit\cocos2d-x-2.2\samples\Cpp\HelloCpp\proj.win32\..\..\..\..\cocos2dx\kazmath\include" /I"E:\BalloonAshGit\cocos2d-x-2.2\samples\Cpp\HelloCpp\proj.win32\..\..\..\..\cocos2dx\platform\win32" /I"E:\BalloonAshGit\cocos2d-x-2.2\samples\Cpp\HelloCpp\proj.win32\..\..\..\..\cocos2dx\platform\third_party\win32\OGLES" /I..\Classes /ZI /nologo /W3 /WX- /Od /Oy- /D WIN32 /D _DEBUG /D _WINDOWS /D COCOS2D_DEBUG=1 /D _CRT_SECURE_NO_WARNINGS /D _SCL_SECURE_NO_WARNINGS /D _UNICODE /D UNICODE /Gm /EHsc /RTC1 /MDd /GS /fp:precise /Zc:wchar_t /Zc:forScope /Fo"DEBUG.WIN32\\" /Fd"DEBUG.WIN32\VC110.PDB" /Gd /TP /wd4267 /wd4251 /wd4244 /analyze- E:\BALLOONASHGIT\COCOS2D-X-2.2\SAMPLES\CPP\HELLOCPP\CLASSES\BOX2D_2\HELLOWORLDSCENE.CPP
^E:\BALLOONASHGIT\COCOS2D-X-2.2\SAMPLES\CPP\HELLOCPP\CLASSES\BOX2D_2\SOFTBALL.CPP
/c /I"E:\BalloonAshGit\cocos2d-x-2.2\samples\Cpp\HelloCpp\proj.win32\..\..\..\..\CocosDenshion\include" /I"E:\BalloonAshGit\cocos2d-x-2.2\samples\Cpp\HelloCpp\proj.win32\..\Classes" /I"E:\BalloonAshGit\cocos2d-x-2.2\samples\Cpp\HelloCpp\proj.win32\..\..\..\..\external" /I"E:\BalloonAshGit\cocos2d-x-2.2\samples\Cpp\HelloCpp\proj.win32\..\..\..\..\cocos2dx" /I"E:\BalloonAshGit\cocos2d-x-2.2\samples\Cpp\HelloCpp\proj.win32\..\..\..\..\cocos2dx\include" /I"E:\BalloonAshGit\cocos2d-x-2.2\samples\Cpp\HelloCpp\proj.win32\..\..\..\..\cocos2dx\kazmath\include" /I"E:\BalloonAshGit\cocos2d-x-2.2\samples\Cpp\HelloCpp\proj.win32\..\..\..\..\cocos2dx\platform\win32" /I"E:\BalloonAshGit\cocos2d-x-2.2\samples\Cpp\HelloCpp\proj.win32\..\..\..\..\cocos2dx\platform\third_party\win32\OGLES" /I..\Classes /ZI /nologo /W3 /WX- /Od /Oy- /D WIN32 /D _DEBUG /D _WINDOWS /D COCOS2D_DEBUG=1 /D _CRT_SECURE_NO_WARNINGS /D _SCL_SECURE_NO_WARNINGS /D _UNICODE /D UNICODE /Gm /EHsc /RTC1 /MDd /GS /fp:precise /Zc:wchar_t /Zc:forScope /Fo"DEBUG.WIN32\\" /Fd"DEBUG.WIN32\VC110.PDB" /Gd /TP /wd4267 /wd4251 /wd4244 /analyze- E:\BALLOONASHGIT\COCOS2D-X-2.2\SAMPLES\CPP\HELLOCPP\CLASSES\BOX2D_2\SOFTBALL.CPP
^E:\BALLOONASHGIT\COCOS2D-X-2.2\SAMPLES\CPP\HELLOCPP\PROJ.WIN32\MAIN.CPP
/c /I"E:\BalloonAshGit\cocos2d-x-2.2\samples\Cpp\HelloCpp\proj.win32\..\..\..\..\CocosDenshion\include" /I"E:\BalloonAshGit\cocos2d-x-2.2\samples\Cpp\HelloCpp\proj.win32\..\Classes" /I"E:\BalloonAshGit\cocos2d-x-2.2\samples\Cpp\HelloCpp\proj.win32\..\..\..\..\external" /I"E:\BalloonAshGit\cocos2d-x-2.2\samples\Cpp\HelloCpp\proj.win32\..\..\..\..\cocos2dx" /I"E:\BalloonAshGit\cocos2d-x-2.2\samples\Cpp\HelloCpp\proj.win32\..\..\..\..\cocos2dx\include" /I"E:\BalloonAshGit\cocos2d-x-2.2\samples\Cpp\HelloCpp\proj.win32\..\..\..\..\cocos2dx\kazmath\include" /I"E:\BalloonAshGit\cocos2d-x-2.2\samples\Cpp\HelloCpp\proj.win32\..\..\..\..\cocos2dx\platform\win32" /I"E:\BalloonAshGit\cocos2d-x-2.2\samples\Cpp\HelloCpp\proj.win32\..\..\..\..\cocos2dx\platform\third_party\win32\OGLES" /I..\Classes /ZI /nologo /W3 /WX- /Od /Oy- /D WIN32 /D _DEBUG /D _WINDOWS /D COCOS2D_DEBUG=1 /D _CRT_SECURE_NO_WARNINGS /D _SCL_SECURE_NO_WARNINGS /D _UNICODE /D UNICODE /Gm /EHsc /RTC1 /MDd /GS /fp:precise /Zc:wchar_t /Zc:forScope /Fo"DEBUG.WIN32\\" /Fd"DEBUG.WIN32\VC110.PDB" /Gd /TP /wd4267 /wd4251 /wd4244 /analyze- E:\BALLOONASHGIT\COCOS2D-X-2.2\SAMPLES\CPP\HELLOCPP\PROJ.WIN32\MAIN.CPP
