^E:\BALLOONASHGIT\COCOS2D-X-2.2\DEBUG.WIN32\LIBCOCOS2D.LIB|E:\BALLOONASHGIT\COCOS2D-X-2.2\DEBUG.WIN32\LIBCOCOSDENSHION.LIB|E:\BALLOONASHGIT\COCOS2D-X-2.2\SAMPLES\CPP\HELLOCPP\PROJ.WIN32\DEBUG.WIN32\APPDELEGATE.OBJ|E:\BALLOONASHGIT\COCOS2D-X-2.2\SAMPLES\CPP\HELLOCPP\PROJ.WIN32\DEBUG.WIN32\B2DEBUGDRAW.OBJ|E:\BALLOONASHGIT\COCOS2D-X-2.2\SAMPLES\CPP\HELLOCPP\PROJ.WIN32\DEBUG.WIN32\FREEHANDDRAW.OBJ|E:\BALLOONASHGIT\COCOS2D-X-2.2\SAMPLES\CPP\HELLOCPP\PROJ.WIN32\DEBUG.WIN32\HELLOWORLDSCENE.OBJ|E:\BALLOONASHGIT\COCOS2D-X-2.2\SAMPLES\CPP\HELLOCPP\PROJ.WIN32\DEBUG.WIN32\MAIN.OBJ|E:\BALLOONASHGIT\COCOS2D-X-2.2\SAMPLES\CPP\HELLOCPP\PROJ.WIN32\DEBUG.WIN32\SOFTBALL.OBJ
E:\BALLOONASHGIT\COCOS2D-X-2.2\DEBUG.WIN32\HELLOCPP.ILK
E:\BALLOONASHGIT\COCOS2D-X-2.2\DEBUG.WIN32\HELLOCPP.EXE
E:\BALLOONASHGIT\COCOS2D-X-2.2\DEBUG.WIN32\HELLOCPP.PDB
