^E:\BALLOONASHGIT\COCOS2D-X-2.2\DEBUG.WIN32\LIBCOCOS2D.LIB|E:\BALLOONASHGIT\COCOS2D-X-2.2\DEBUG.WIN32\LIBCOCOSDENSHION.LIB|E:\BALLOONASHGIT\COCOS2D-X-2.2\SAMPLES\CPP\HELLOCPP\PROJ.WIN32\DEBUG.WIN32\APPDELEGATE.OBJ|E:\BALLOONASHGIT\COCOS2D-X-2.2\SAMPLES\CPP\HELLOCPP\PROJ.WIN32\DEBUG.WIN32\B2DEBUGDRAW.OBJ|E:\BALLOONASHGIT\COCOS2D-X-2.2\SAMPLES\CPP\HELLOCPP\PROJ.WIN32\DEBUG.WIN32\FREEHANDDRAW.OBJ|E:\BALLOONASHGIT\COCOS2D-X-2.2\SAMPLES\CPP\HELLOCPP\PROJ.WIN32\DEBUG.WIN32\HELLOWORLDSCENE.OBJ|E:\BALLOONASHGIT\COCOS2D-X-2.2\SAMPLES\CPP\HELLOCPP\PROJ.WIN32\DEBUG.WIN32\MAIN.OBJ|E:\BALLOONASHGIT\COCOS2D-X-2.2\SAMPLES\CPP\HELLOCPP\PROJ.WIN32\DEBUG.WIN32\SOFTBALL.OBJ
C:\WINDOWS\GLOBALIZATION\SORTING\SORTDEFAULT.NLS
C:\PROGRAM FILES (X86)\WINDOWS KITS\8.0\LIB\WIN8\UM\X86\OPENGL32.LIB
E:\BALLOONASHGIT\COCOS2D-X-2.2\DEBUG.WIN32\GLEW32.LIB
E:\BALLOONASHGIT\COCOS2D-X-2.2\DEBUG.WIN32\LIBCOCOS2D.LIB
E:\BALLOONASHGIT\COCOS2D-X-2.2\DEBUG.WIN32\LIBBOX2D.LIB
C:\PROGRAM FILES (X86)\WINDOWS KITS\8.0\LIB\WIN8\UM\X86\KERNEL32.LIB
C:\PROGRAM FILES (X86)\WINDOWS KITS\8.0\LIB\WIN8\UM\X86\USER32.LIB
C:\PROGRAM FILES (X86)\WINDOWS KITS\8.0\LIB\WIN8\UM\X86\GDI32.LIB
C:\PROGRAM FILES (X86)\WINDOWS KITS\8.0\LIB\WIN8\UM\X86\WINSPOOL.LIB
C:\PROGRAM FILES (X86)\WINDOWS KITS\8.0\LIB\WIN8\UM\X86\COMDLG32.LIB
C:\PROGRAM FILES (X86)\WINDOWS KITS\8.0\LIB\WIN8\UM\X86\ADVAPI32.LIB
C:\PROGRAM FILES (X86)\WINDOWS KITS\8.0\LIB\WIN8\UM\X86\SHELL32.LIB
C:\PROGRAM FILES (X86)\WINDOWS KITS\8.0\LIB\WIN8\UM\X86\OLE32.LIB
C:\PROGRAM FILES (X86)\WINDOWS KITS\8.0\LIB\WIN8\UM\X86\OLEAUT32.LIB
C:\PROGRAM FILES (X86)\WINDOWS KITS\8.0\LIB\WIN8\UM\X86\UUID.LIB
C:\PROGRAM FILES (X86)\WINDOWS KITS\8.0\LIB\WIN8\UM\X86\ODBC32.LIB
C:\PROGRAM FILES (X86)\WINDOWS KITS\8.0\LIB\WIN8\UM\X86\ODBCCP32.LIB
E:\BALLOONASHGIT\COCOS2D-X-2.2\SAMPLES\CPP\HELLOCPP\PROJ.WIN32\DEBUG.WIN32\APPDELEGATE.OBJ
E:\BALLOONASHGIT\COCOS2D-X-2.2\SAMPLES\CPP\HELLOCPP\PROJ.WIN32\DEBUG.WIN32\B2DEBUGDRAW.OBJ
E:\BALLOONASHGIT\COCOS2D-X-2.2\SAMPLES\CPP\HELLOCPP\PROJ.WIN32\DEBUG.WIN32\FREEHANDDRAW.OBJ
E:\BALLOONASHGIT\COCOS2D-X-2.2\SAMPLES\CPP\HELLOCPP\PROJ.WIN32\DEBUG.WIN32\HELLOWORLDSCENE.OBJ
E:\BALLOONASHGIT\COCOS2D-X-2.2\SAMPLES\CPP\HELLOCPP\PROJ.WIN32\DEBUG.WIN32\SOFTBALL.OBJ
E:\BALLOONASHGIT\COCOS2D-X-2.2\SAMPLES\CPP\HELLOCPP\PROJ.WIN32\DEBUG.WIN32\MAIN.OBJ
E:\BALLOONASHGIT\COCOS2D-X-2.2\DEBUG.WIN32\LIBCOCOSDENSHION.LIB
C:\WINDOWS\SYSTEM32\TZRES.DLL
C:\PROGRAM FILES (X86)\MICROSOFT VISUAL STUDIO 11.0\VC\LIB\MSVCPRTD.LIB
C:\PROGRAM FILES (X86)\MICROSOFT VISUAL STUDIO 11.0\VC\LIB\MSVCRTD.LIB
C:\PROGRAM FILES (X86)\MICROSOFT VISUAL STUDIO 11.0\VC\LIB\OLDNAMES.LIB
